1950 301.92
1951 300.88
1952 299.88
1953 299.76
1954 299.77
1955 299.81
1956 299.88
1957 300.02
1958 300.43
1959 301.37
1960 302.54
1961 302.72
1962 302.62
1963 303.11
1964 303.61
1965 304.42
1966 305.56
1967 306.59
1968 307.81
1969 309.6
1970 311.81
1971 314.09
1972 316.19
1973 318.12
1974 319.6
1975 320.88
1976 322.19
1977 323.87
1978 326.21
1979 328.74
1980 330.86
1981 332.23
1982 333.03
1983 334.24
1984 336.15
1985 338.2
1986 340.22
1987 342.41
1988 345.08
1989 347.73
1990 349.91
1991 351.19
1992 351.55
1993 352.27
1994 353.74
1995 355.94
1996 358.26
1997 359.83
1998 361.47
1999 363.28
2000 364.37
2001 365.65
2002 367.98
2003 370.52
2004 372.79
2005 375.2
2006 378.16
2007 381.36
2008 384.74
2009 386.28
2010 388.72
2011 390.94
2012 393.02
2013 395.72
2014 397.55
2015 399.95
2016 403.12
2017 405.74
2018 408.56
2019 411.34
2020 414.1
2021 416.84
2022 419.61
2023 422.44
2024 425.33
2025 428.29
2026 431.31
2027 434.39
2028 437.53
2029 440.73
2030 444
2031 447.32
2032 450.7
2033 454.09
2034 457.52
2035 460.97
2036 464.46
2037 467.97
2038 471.52
2039 475.1
2040 478.72
2041 482.37
2042 486.03
2043 489.7
2044 493.38
2045 497.06
2046 500.75
2047 504.44
2048 508.15
2049 511.87
2050 515.59
2051 519.33
2052 523.07
2053 526.81
2054 530.55
2055 534.28
2056 538.01
2057 541.74
2058 545.47
2059 549.21
2060 552.94
2061 556.67
2062 560.39
2063 564.1
2064 567.79
2065 571.46
2066 575.12
2067 578.76
2068 582.39
2069 586.01
2070 589.61
2071 593.2
2072 596.74
2073 600.21
2074 603.61
2075 606.95
2076 610.22
2077 613.42
2078 616.56
2079 619.63
2080 622.64
2081 625.58
2082 628.46
2083 631.27
2084 634.01
2085 636.68
2086 639.28
2087 641.81
2088 644.28
2089 646.67
2090 648.99
2091 651.24
2092 653.43
2093 655.54
2094 657.59
2095 659.57
2096 661.47
2097 663.31
2098 665.08
2099 666.78
2100 668.4
2101 669.96
2102 671.49
2103 673.02
2104 674.57
2105 676.12
2106 677.67
2107 679.22
2108 680.78
2109 682.34
2110 683.89
2111 685.45
2112 687
2113 688.55
2114 690.09
2115 691.64
2116 693.18
2117 694.71
2118 696.24
2119 697.76
2120 699.28
2121 700.79
2122 702.29
2123 703.79
2124 705.28
2125 706.76
2126 708.24
2127 709.71
2128 711.16
2129 712.62
2130 714.06
2131 715.49
2132 716.92
2133 718.33
2134 719.74
2135 721.14
2136 722.53
2137 723.91
2138 725.28
2139 726.64
2140 728
2141 729.34
2142 730.67
2143 731.99
2144 733.3
2145 734.61
2146 735.9
2147 737.18
2148 738.45
2149 739.71
2150 740.96
2151 742.2
2152 743.43
2153 744.64
2154 745.84
2155 747.02
2156 748.18
2157 749.33
2158 750.47
2159 751.59
2160 752.69
2161 753.78
2162 754.85
2163 755.91
2164 756.95
2165 757.97
2166 758.98
2167 759.98
2168 760.96
2169 761.92
2170 762.87
2171 763.8
2172 764.71
2173 765.61
2174 766.5
2175 767.37
2176 768.22
2177 769.06
2178 769.88
2179 770.68
2180 771.47
2181 772.24
2182 773
2183 773.74
2184 774.46
2185 775.17
2186 775.87
2187 776.54
2188 777.2
2189 777.85
2190 778.47
2191 779.09
2192 779.68
2193 780.26
2194 780.82
2195 781.37
2196 781.9
2197 782.41
2198 782.91
2199 783.39
2200 783.86
2201 784.31
2202 784.74
2203 785.15
2204 785.55
2205 785.94
2206 786.3
2207 786.65
2208 786.99
2209 787.3
2210 787.6
2211 787.89
2212 788.16
2213 788.41
2214 788.64
2215 788.86
2216 789.06
2217 789.25
2218 789.42
2219 789.57
2220 789.71
2221 789.83
2222 789.93
2223 790.02
2224 790.09
2225 790.14
2226 790.18
2227 790.2
2228 790.21
2229 790.19
2230 790.17
2231 790.12
2232 790.06
2233 789.98
2234 789.89
2235 789.78
2236 789.65
2237 789.51
2238 789.35
2239 789.17
2240 788.98
2241 788.77
2242 788.54
2243 788.3
2244 788.04
2245 787.77
2246 787.48
2247 787.17
2248 786.85
2249 786.51
2250 786.15
2251 785.78
2252 785.4
2253 785.03
2254 784.66
2255 784.29
2256 783.92
2257 783.55
2258 783.19
2259 782.82
2260 782.46
2261 782.1
2262 781.74
2263 781.38
2264 781.02
2265 780.66
2266 780.3
2267 779.95
2268 779.59
2269 779.24
2270 778.88
2271 778.53
2272 778.18
2273 777.83
2274 777.48
2275 777.13
2276 776.78
2277 776.44
2278 776.09
2279 775.75
2280 775.41
2281 775.06
2282 774.72
2283 774.38
2284 774.04
2285 773.7
2286 773.37
2287 773.03
2288 772.69
2289 772.36
2290 772.02
2291 771.69
2292 771.36
2293 771.02
2294 770.69
2295 770.37
2296 770.04
2297 769.71
2298 769.38
2299 769.05
2300 768.73
2301 768.4
2302 768.08
2303 767.76
2304 767.43
2305 767.11
2306 766.79
2307 766.47
2308 766.15
2309 765.83
2310 765.51
2311 765.19
2312 764.88
2313 764.56
2314 764.25
2315 763.93
2316 763.62
2317 763.3
2318 762.99
2319 762.68
2320 762.36
2321 762.05
2322 761.74
2323 761.43
2324 761.12
2325 760.81
2326 760.51
2327 760.2
2328 759.89
2329 759.59
2330 759.28
2331 758.98
2332 758.67
2333 758.37
2334 758.06
2335 757.76
2336 757.46
2337 757.16
2338 756.85
2339 756.55
2340 756.25
2341 755.95
2342 755.65
2343 755.36
2344 755.06
2345 754.76
2346 754.46
2347 754.17
2348 753.87
2349 753.57
2350 753.28
2351 752.98
2352 752.69
2353 752.4
2354 752.1
2355 751.81
2356 751.52
2357 751.23
2358 750.94
2359 750.65
2360 750.36
2361 750.07
2362 749.78
2363 749.49
2364 749.2
2365 748.91
2366 748.62
2367 748.34
2368 748.05
2369 747.76
2370 747.48
2371 747.19
2372 746.91
2373 746.63
2374 746.34
2375 746.06
2376 745.78
2377 745.49
2378 745.21
2379 744.93
2380 744.65
2381 744.37
2382 744.09
2383 743.81
2384 743.53
2385 743.25
2386 742.97
2387 742.7
2388 742.42
2389 742.14
2390 741.86
2391 741.59
2392 741.31
2393 741.04
2394 740.76
2395 740.49
2396 740.21
2397 739.94
2398 739.67
2399 739.39
2400 739.12
2401 738.85
2402 738.58
2403 738.31
2404 738.04
2405 737.77
2406 737.5
2407 737.23
2408 736.96
2409 736.69
2410 736.42
2411 736.15
2412 735.89
2413 735.62
2414 735.35
2415 735.09
2416 734.82
2417 734.56
2418 734.29
2419 734.03
2420 733.76
2421 733.5
2422 733.24
2423 732.97
2424 732.71
2425 732.45
2426 732.19
2427 731.93
2428 731.66
2429 731.4
2430 731.14
2431 730.89
2432 730.63
2433 730.37
2434 730.11
2435 729.85
2436 729.59
2437 729.34
2438 729.08
2439 728.82
2440 728.57
2441 728.31
2442 728.05
2443 727.8
2444 727.54
2445 727.29
2446 727.04
2447 726.78
2448 726.53
2449 726.28
2450 726.03
2451 725.77
2452 725.52
2453 725.27
2454 725.02
2455 724.77
2456 724.52
2457 724.27
2458 724.02
2459 723.77
2460 723.52
2461 723.27
2462 723.03
2463 722.78
2464 722.53
2465 722.29
2466 722.04
2467 721.79
2468 721.55
2469 721.3
2470 721.06
2471 720.81
2472 720.57
2473 720.33
2474 720.08
2475 719.84
2476 719.6
2477 719.35
2478 719.11
2479 718.87
2480 718.63
2481 718.39
2482 718.15
2483 717.91
2484 717.67
2485 717.43
2486 717.19
2487 716.95
2488 716.71
2489 716.47
2490 716.23
2491 716
2492 715.76
2493 715.52
2494 715.29
2495 715.05
2496 714.81
2497 714.58
2498 714.34
2499 714.11
2500 713.99
