1950 301.92
1951 300.88
1952 299.88
1953 299.76
1954 299.77
1955 299.81
1956 299.88
1957 300.02
1958 300.43
1959 301.37
1960 302.54
1961 302.72
1962 302.62
1963 303.11
1964 303.61
1965 304.42
1966 305.56
1967 306.59
1968 307.81
1969 309.6
1970 311.81
1971 314.09
1972 316.19
1973 318.12
1974 319.6
1975 320.88
1976 322.19
1977 323.87
1978 326.21
1979 328.74
1980 330.86
1981 332.23
1982 333.03
1983 334.24
1984 336.15
1985 338.2
1986 340.22
1987 342.41
1988 345.08
1989 347.73
1990 349.91
1991 351.19
1992 351.55
1993 352.27
1994 353.74
1995 355.94
1996 358.26
1997 359.83
1998 361.47
1999 363.28
2000 364.37
2001 365.65
2002 367.98
2003 370.52
2004 372.79
2005 375.2
2006 378.16
2007 381.36
2008 384.74
2009 386.28
2010 388.72
2011 390.94
2012 393.02
2013 395.72
2014 397.55
2015 399.95
2016 403.12
2017 405.76
2018 408.63
2019 411.51
2020 414.39
2021 417.29
2022 420.2
2023 423.12
2024 426.07
2025 429.03
2026 432.01
2027 435.01
2028 438.03
2029 441.08
2030 444.14
2031 447.23
2032 450.33
2033 453.43
2034 456.54
2035 459.65
2036 462.77
2037 465.9
2038 469.03
2039 472.18
2040 475.34
2041 478.5
2042 481.67
2043 484.84
2044 488
2045 491.15
2046 494.3
2047 497.45
2048 500.59
2049 503.73
2050 506.87
2051 510.01
2052 513.14
2053 516.23
2054 519.29
2055 522.33
2056 525.33
2057 528.31
2058 531.26
2059 534.19
2060 537.08
2061 539.96
2062 542.79
2063 545.59
2064 548.33
2065 551.04
2066 553.7
2067 556.32
2068 558.89
2069 561.43
2070 563.92
2071 566.38
2072 568.77
2073 571.08
2074 573.31
2075 575.47
2076 577.54
2077 579.54
2078 581.46
2079 583.3
2080 585.07
2081 586.77
2082 588.38
2083 589.89
2084 591.3
2085 592.61
2086 593.82
2087 594.94
2088 595.97
2089 596.9
2090 597.73
2091 598.48
2092 599.15
2093 599.78
2094 600.35
2095 600.89
2096 601.37
2097 601.8
2098 602.18
2099 602.5
2100 602.78
2101 603
2102 603.22
2103 603.46
2104 603.72
2105 604.01
2106 604.32
2107 604.65
2108 605
2109 605.36
2110 605.73
2111 606.12
2112 606.53
2113 606.94
2114 607.37
2115 607.8
2116 608.25
2117 608.7
2118 609.16
2119 609.63
2120 610.11
2121 610.59
2122 611.08
2123 611.58
2124 612.08
2125 612.58
2126 613.09
2127 613.61
2128 614.13
2129 614.65
2130 615.18
2131 615.71
2132 616.25
2133 616.78
2134 617.32
2135 617.87
2136 618.41
2137 618.96
2138 619.51
2139 620.06
2140 620.62
2141 621.18
2142 621.73
2143 622.29
2144 622.86
2145 623.42
2146 623.98
2147 624.55
2148 625.12
2149 625.69
2150 626.26
2151 626.83
2152 627.39
2153 627.95
2154 628.49
2155 629.03
2156 629.55
2157 630.06
2158 630.57
2159 631.06
2160 631.54
2161 632.02
2162 632.48
2163 632.93
2164 633.38
2165 633.81
2166 634.24
2167 634.65
2168 635.06
2169 635.45
2170 635.84
2171 636.22
2172 636.59
2173 636.94
2174 637.29
2175 637.63
2176 637.96
2177 638.28
2178 638.6
2179 638.9
2180 639.19
2181 639.48
2182 639.75
2183 640.01
2184 640.27
2185 640.52
2186 640.75
2187 640.98
2188 641.2
2189 641.41
2190 641.61
2191 641.8
2192 641.98
2193 642.15
2194 642.32
2195 642.47
2196 642.62
2197 642.75
2198 642.88
2199 643
2200 643.1
2201 643.2
2202 643.29
2203 643.37
2204 643.44
2205 643.51
2206 643.56
2207 643.6
2208 643.64
2209 643.66
2210 643.68
2211 643.69
2212 643.69
2213 643.67
2214 643.65
2215 643.63
2216 643.59
2217 643.54
2218 643.48
2219 643.42
2220 643.34
2221 643.26
2222 643.17
2223 643.07
2224 642.96
2225 642.84
2226 642.71
2227 642.57
2228 642.42
2229 642.27
2230 642.11
2231 641.93
2232 641.75
2233 641.56
2234 641.36
2235 641.15
2236 640.93
2237 640.71
2238 640.47
2239 640.23
2240 639.97
2241 639.71
2242 639.44
2243 639.16
2244 638.87
2245 638.57
2246 638.27
2247 637.95
2248 637.63
2249 637.3
2250 636.96
2251 636.61
2252 636.26
2253 635.91
2254 635.56
2255 635.22
2256 634.87
2257 634.53
2258 634.19
2259 633.86
2260 633.52
2261 633.18
2262 632.85
2263 632.52
2264 632.19
2265 631.86
2266 631.53
2267 631.2
2268 630.88
2269 630.56
2270 630.23
2271 629.91
2272 629.6
2273 629.28
2274 628.97
2275 628.65
2276 628.34
2277 628.03
2278 627.72
2279 627.42
2280 627.11
2281 626.81
2282 626.51
2283 626.21
2284 625.91
2285 625.61
2286 625.31
2287 625.02
2288 624.73
2289 624.44
2290 624.15
2291 623.86
2292 623.57
2293 623.28
2294 623
2295 622.72
2296 622.43
2297 622.15
2298 621.87
2299 621.6
2300 621.32
2301 621.04
2302 620.77
2303 620.49
2304 620.22
2305 619.95
2306 619.68
2307 619.41
2308 619.14
2309 618.88
2310 618.61
2311 618.35
2312 618.08
2313 617.82
2314 617.56
2315 617.29
2316 617.03
2317 616.78
2318 616.52
2319 616.26
2320 616
2321 615.75
2322 615.5
2323 615.24
2324 614.99
2325 614.74
2326 614.48
2327 614.23
2328 613.99
2329 613.74
2330 613.49
2331 613.24
2332 613
2333 612.75
2334 612.51
2335 612.26
2336 612.02
2337 611.78
2338 611.54
2339 611.3
2340 611.06
2341 610.82
2342 610.58
2343 610.34
2344 610.1
2345 609.87
2346 609.63
2347 609.39
2348 609.16
2349 608.93
2350 608.69
2351 608.46
2352 608.23
2353 608
2354 607.77
2355 607.54
2356 607.31
2357 607.08
2358 606.85
2359 606.62
2360 606.4
2361 606.17
2362 605.95
2363 605.72
2364 605.5
2365 605.27
2366 605.05
2367 604.83
2368 604.6
2369 604.38
2370 604.16
2371 603.94
2372 603.72
2373 603.5
2374 603.28
2375 603.06
2376 602.85
2377 602.63
2378 602.41
2379 602.19
2380 601.98
2381 601.76
2382 601.55
2383 601.33
2384 601.12
2385 600.91
2386 600.69
2387 600.48
2388 600.27
2389 600.06
2390 599.85
2391 599.64
2392 599.43
2393 599.22
2394 599.01
2395 598.8
2396 598.59
2397 598.38
2398 598.17
2399 597.97
2400 597.76
2401 597.55
2402 597.35
2403 597.14
2404 596.94
2405 596.73
2406 596.53
2407 596.32
2408 596.12
2409 595.92
2410 595.72
2411 595.51
2412 595.31
2413 595.11
2414 594.91
2415 594.71
2416 594.51
2417 594.3
2418 594.1
2419 593.91
2420 593.71
2421 593.51
2422 593.31
2423 593.11
2424 592.91
2425 592.71
2426 592.52
2427 592.32
2428 592.12
2429 591.93
2430 591.73
2431 591.54
2432 591.34
2433 591.15
2434 590.96
2435 590.76
2436 590.57
2437 590.38
2438 590.19
2439 589.99
2440 589.81
2441 589.61
2442 589.42
2443 589.24
2444 589.05
2445 588.86
2446 588.67
2447 588.48
2448 588.29
2449 588.11
2450 587.92
2451 587.74
2452 587.55
2453 587.36
2454 587.18
2455 586.99
2456 586.81
2457 586.63
2458 586.45
2459 586.26
2460 586.08
2461 585.9
2462 585.72
2463 585.53
2464 585.35
2465 585.17
2466 584.99
2467 584.81
2468 584.63
2469 584.46
2470 584.28
2471 584.1
2472 583.92
2473 583.75
2474 583.57
2475 583.39
2476 583.21
2477 583.04
2478 582.86
2479 582.69
2480 582.51
2481 582.34
2482 582.17
2483 581.99
2484 581.82
2485 581.65
2486 581.47
2487 581.3
2488 581.13
2489 580.96
2490 580.79
2491 580.62
2492 580.45
2493 580.28
2494 580.11
2495 579.94
2496 579.77
2497 579.6
2498 579.43
2499 579.26
2500 579.18
