1950 301.92
1951 300.88
1952 299.88
1953 299.76
1954 299.77
1955 299.81
1956 299.88
1957 300.02
1958 300.43
1959 301.37
1960 302.54
1961 302.72
1962 302.62
1963 303.11
1964 303.61
1965 304.42
1966 305.56
1967 306.59
1968 307.81
1969 309.6
1970 311.81
1971 314.09
1972 316.19
1973 318.12
1974 319.6
1975 320.88
1976 322.19
1977 323.87
1978 326.21
1979 328.74
1980 330.86
1981 332.23
1982 333.03
1983 334.24
1984 336.15
1985 338.2
1986 340.22
1987 342.41
1988 345.08
1989 347.73
1990 349.91
1991 351.19
1992 351.55
1993 352.27
1994 353.74
1995 355.94
1996 358.26
1997 359.83
1998 361.47
1999 363.28
2000 364.37
2001 365.65
2002 367.98
2003 370.52
2004 372.79
2005 375.2
2006 378.16
2007 381.36
2008 384.74
2009 386.28
2010 388.72
2011 390.94
2012 393.02
2013 395.72
2014 397.55
2015 399.95
2016 403.12
2017 405.79
2018 408.76
2019 411.79
2020 414.89
2021 418.06
2022 421.33
2023 424.72
2024 428.22
2025 431.83
2026 435.55
2027 439.38
2028 443.31
2029 447.36
2030 451.51
2031 455.78
2032 460.16
2033 464.68
2034 469.33
2035 474.11
2036 479.02
2037 484.07
2038 489.25
2039 494.57
2040 500.02
2041 505.61
2042 511.34
2043 517.23
2044 523.27
2045 529.46
2046 535.81
2047 542.31
2048 548.98
2049 555.8
2050 562.78
2051 569.93
2052 577.26
2053 584.78
2054 592.51
2055 600.43
2056 608.55
2057 616.87
2058 625.39
2059 634.11
2060 643.04
2061 652.17
2062 661.51
2063 671.04
2064 680.79
2065 690.74
2066 700.9
2067 711.27
2068 721.85
2069 732.65
2070 743.66
2071 754.89
2072 766.32
2073 777.93
2074 789.72
2075 801.69
2076 813.85
2077 826.19
2078 838.73
2079 851.45
2080 864.37
2081 877.48
2082 890.71
2083 903.98
2084 917.3
2085 930.67
2086 944.09
2087 957.57
2088 971.1
2089 984.68
2090 998.32
2091 1012
2092 1025.7
2093 1039.4
2094 1053.1
2095 1066.8
2096 1080.5
2097 1094.2
2098 1107.9
2099 1121.5
2100 1135.2
2101 1148.9
2102 1162.5
2103 1176
2104 1189.5
2105 1203
2106 1216.4
2107 1229.7
2108 1243
2109 1256.2
2110 1269.3
2111 1282.4
2112 1295.5
2113 1308.5
2114 1321.4
2115 1334.2
2116 1347
2117 1359.8
2118 1372.4
2119 1385
2120 1397.6
2121 1410
2122 1422.4
2123 1434.8
2124 1447
2125 1459.2
2126 1471.3
2127 1483.3
2128 1495.3
2129 1507.2
2130 1519
2131 1530.7
2132 1542.3
2133 1553.9
2134 1565.4
2135 1576.8
2136 1588.1
2137 1599.3
2138 1610.4
2139 1621.5
2140 1632.5
2141 1643.4
2142 1654.2
2143 1664.9
2144 1675.5
2145 1686
2146 1696.5
2147 1706.8
2148 1717.1
2149 1727.2
2150 1737.3
2151 1747.3
2152 1757.2
2153 1766.9
2154 1776.6
2155 1786.2
2156 1795.7
2157 1805.1
2158 1814.4
2159 1823.5
2160 1832.6
2161 1841.6
2162 1850.5
2163 1859.2
2164 1867.9
2165 1876.4
2166 1884.9
2167 1893.2
2168 1901.5
2169 1909.6
2170 1917.6
2171 1925.6
2172 1933.4
2173 1941.1
2174 1948.7
2175 1956.2
2176 1963.6
2177 1970.9
2178 1978
2179 1985.1
2180 1992.1
2181 1998.9
2182 2005.7
2183 2012.3
2184 2018.8
2185 2025.2
2186 2031.6
2187 2037.8
2188 2043.8
2189 2049.8
2190 2055.7
2191 2061.4
2192 2067.1
2193 2072.6
2194 2078.1
2195 2083.4
2196 2088.6
2197 2093.7
2198 2098.7
2199 2103.5
2200 2108.3
2201 2113
2202 2117.5
2203 2121.9
2204 2126.3
2205 2130.5
2206 2134.6
2207 2138.6
2208 2142.5
2209 2146.3
2210 2149.9
2211 2153.5
2212 2156.9
2213 2160.2
2214 2163.5
2215 2166.6
2216 2169.6
2217 2172.5
2218 2175.3
2219 2177.9
2220 2180.5
2221 2183
2222 2185.3
2223 2187.5
2224 2189.7
2225 2191.7
2226 2193.6
2227 2195.3
2228 2197
2229 2198.6
2230 2200.1
2231 2201.4
2232 2202.7
2233 2203.8
2234 2204.8
2235 2205.7
2236 2206.5
2237 2207.2
2238 2207.8
2239 2208.3
2240 2208.7
2241 2208.9
2242 2209.1
2243 2209.1
2244 2209
2245 2208.8
2246 2208.6
2247 2208.2
2248 2207.7
2249 2207.1
2250 2206.4
2251 2205.5
2252 2204.6
2253 2203.8
2254 2202.9
2255 2202
2256 2201.1
2257 2200.2
2258 2199.3
2259 2198.4
2260 2197.5
2261 2196.6
2262 2195.7
2263 2194.8
2264 2194
2265 2193.1
2266 2192.2
2267 2191.3
2268 2190.3
2269 2189.4
2270 2188.5
2271 2187.6
2272 2186.7
2273 2185.8
2274 2184.9
2275 2184
2276 2183.1
2277 2182.2
2278 2181.3
2279 2180.4
2280 2179.5
2281 2178.6
2282 2177.7
2283 2176.8
2284 2175.9
2285 2175
2286 2174.1
2287 2173.2
2288 2172.3
2289 2171.5
2290 2170.6
2291 2169.7
2292 2168.8
2293 2167.9
2294 2167
2295 2166.1
2296 2165.3
2297 2164.4
2298 2163.5
2299 2162.6
2300 2161.7
2301 2160.9
2302 2160
2303 2159.1
2304 2158.3
2305 2157.4
2306 2156.5
2307 2155.7
2308 2154.8
2309 2153.9
2310 2153.1
2311 2152.2
2312 2151.4
2313 2150.5
2314 2149.7
2315 2148.8
2316 2148
2317 2147.1
2318 2146.2
2319 2145.4
2320 2144.5
2321 2143.7
2322 2142.9
2323 2142
2324 2141.2
2325 2140.3
2326 2139.5
2327 2138.6
2328 2137.8
2329 2137
2330 2136.1
2331 2135.3
2332 2134.5
2333 2133.6
2334 2132.8
2335 2132
2336 2131.1
2337 2130.3
2338 2129.5
2339 2128.6
2340 2127.8
2341 2127
2342 2126.2
2343 2125.4
2344 2124.6
2345 2123.8
2346 2122.9
2347 2122.1
2348 2121.3
2349 2120.5
2350 2119.7
2351 2118.9
2352 2118
2353 2117.2
2354 2116.4
2355 2115.6
2356 2114.8
2357 2114
2358 2113.2
2359 2112.4
2360 2111.6
2361 2110.8
2362 2110
2363 2109.2
2364 2108.4
2365 2107.6
2366 2106.8
2367 2106
2368 2105.2
2369 2104.5
2370 2103.7
2371 2102.9
2372 2102.1
2373 2101.3
2374 2100.5
2375 2099.7
2376 2098.9
2377 2098.2
2378 2097.4
2379 2096.6
2380 2095.8
2381 2095
2382 2094.3
2383 2093.5
2384 2092.7
2385 2092
2386 2091.2
2387 2090.4
2388 2089.6
2389 2088.9
2390 2088.1
2391 2087.3
2392 2086.6
2393 2085.8
2394 2085
2395 2084.2
2396 2083.5
2397 2082.7
2398 2082
2399 2081.2
2400 2080.5
2401 2079.7
2402 2078.9
2403 2078.2
2404 2077.5
2405 2076.7
2406 2075.9
2407 2075.2
2408 2074.4
2409 2073.7
2410 2073
2411 2072.2
2412 2071.4
2413 2070.7
2414 2070
2415 2069.2
2416 2068.5
2417 2067.7
2418 2067
2419 2066.3
2420 2065.5
2421 2064.8
2422 2064
2423 2063.3
2424 2062.6
2425 2061.9
2426 2061.1
2427 2060.4
2428 2059.7
2429 2058.9
2430 2058.2
2431 2057.5
2432 2056.8
2433 2056
2434 2055.3
2435 2054.6
2436 2053.9
2437 2053.1
2438 2052.4
2439 2051.7
2440 2051
2441 2050.3
2442 2049.5
2443 2048.8
2444 2048.1
2445 2047.4
2446 2046.7
2447 2046
2448 2045.3
2449 2044.6
2450 2043.9
2451 2043.2
2452 2042.5
2453 2041.8
2454 2041
2455 2040.4
2456 2039.7
2457 2038.9
2458 2038.2
2459 2037.5
2460 2036.9
2461 2036.1
2462 2035.5
2463 2034.7
2464 2034.1
2465 2033.4
2466 2032.7
2467 2032
2468 2031.3
2469 2030.6
2470 2029.9
2471 2029.2
2472 2028.5
2473 2027.9
2474 2027.2
2475 2026.5
2476 2025.8
2477 2025.1
2478 2024.4
2479 2023.7
2480 2023.1
2481 2022.4
2482 2021.7
2483 2021
2484 2020.4
2485 2019.7
2486 2019
2487 2018.4
2488 2017.7
2489 2017
2490 2016.3
2491 2015.7
2492 2015
2493 2014.3
2494 2013.7
2495 2013
2496 2012.3
2497 2011.7
2498 2011
2499 2010.4
2500 2010
